<?xml version="1.0" standalone="no"?>
<!DOCTYPE svg PUBLIC "-//W3C//DTD SVG 1.1//EN" "http://www.w3.org/Graphics/SVG/1.1/DTD/svg11.dtd" >
<!--
2016-5-22: Created.
-->
<svg xmlns="http://www.w3.org/2000/svg">
<metadata>
Created by FontForge 20120731 at Sun May 22 09:23:31 2016
 By Apache
Created by Apache with FontForge 2.0 (http://fontforge.sf.net)
</metadata>
<defs>
<font id="Flaticon" horiz-adv-x="512" >
  <font-face 
    font-family="Flaticon"
    font-weight="500"
    font-stretch="normal"
    units-per-em="512"
    panose-1="2 0 6 3 0 0 0 0 0 0"
    ascent="448"
    descent="-64"
    bbox="-0.00745392 -64.022 512.014 448"
    underline-thickness="25.6"
    underline-position="-51.2"
    unicode-range="U+0020-F10F"
  />
    <missing-glyph />
    <glyph glyph-name="space" unicode=" " horiz-adv-x="200" 
 />
    <glyph glyph-name="uniF104" unicode="&#xf104;" 
d="M373.92 245.656c6.24805 6.24805 16.3838 6.25586 22.6318 0.0078125s6.24805 -16.376 0 -22.624l-127.032 -127.032c-3.03125 -3.03223 -7.12793 -4.6875 -11.3115 -4.6875c-1.37598 0 -2.76758 0.183594 -4.12793 0.543945
c-2.71973 0.711914 -5.44043 2.21582 -7.42383 4.2002l-127.032 127.063c-6.24805 6.24805 -6.24805 16.3916 0 22.624c6.24805 6.24805 16.376 6.24805 22.624 0l115.88 -115.896zM256 448c141.16 0 256 -114.84 256 -256s-114.84 -256 -256 -256s-256 114.84 -256 256
s114.84 256 256 256zM256 -32c123.512 0 224 100.488 224 224s-100.488 224 -224 224s-224 -100.488 -224 -224s100.488 -224 224 -224z" />
    <glyph glyph-name="uniF10A" unicode="&#xf10a;" 
d="M138.38 -15.0264v414.053h235.241v-414.053h-90.4395v92.4814h-54.3623v-92.4814h-90.4395zM272.503 350.23v-54.3623h54.3604v54.3623h-54.3604zM272.503 262.863v-54.3613h54.3604v54.3613h-54.3604zM272.503 175.498v-54.3613h54.3604v54.3613h-54.3604z
M185.137 350.23v-54.3623h54.3604v54.3623h-54.3604zM185.137 262.863v-54.3613h54.3604v54.3613h-54.3604zM185.137 175.498v-54.3613h54.3604v54.3613h-54.3604zM394.737 361.936h117.263v-376.962h-82.3379v84.1953h-34.9248v292.767zM469.433 108.938
l-0.000976562 49.4912h-49.4912v-49.4912h49.4922zM469.433 188.479l-0.000976562 49.4902h-49.4912v-49.4902h49.4922zM469.433 268.019l-0.000976562 49.4902h-49.4912v-49.4902h49.4922zM0 -15.0264v376.962h117.263v-292.767h-34.9248v-84.1953h-82.3379z
M42.5684 317.509v-49.4902h49.4912v49.4902h-49.4912zM42.5684 237.969v-49.4902h49.4912v49.4902h-49.4912zM42.5684 158.431v-49.4902h49.4912v49.4902h-49.4912z" />
    <glyph glyph-name="uniF105" unicode="&#xf105;" 
d="M455.895 88.0371l56.1055 -111.168h-159.521h-33.4365h-126.083h-33.4365h-159.522l56.1094 111.168h27.8086l51.9502 102.933h31.9668l47.7949 94.6992h80.7441l47.7949 -94.6992h31.9648l51.9531 -102.933h27.8076zM176.24 9.99414l35.2324 69.8076h-70.4668z
M256.002 112.929l31.0771 61.5723h-62.1533zM335.764 9.99414l35.2324 69.8076h-70.4648zM273.844 347.43h-37.0557v59.7012h37.0557v-59.7012zM340.293 318.142l-31.583 19.3799l32.5117 52.9824l31.582 -19.3809zM391.718 260.068l-18.8232 31.918l46.9648 27.6973
l18.8242 -31.918zM172.645 318.141l-32.5117 52.9824l31.583 19.3799l32.5107 -52.9824zM121.225 260.078l-46.9648 27.6963l18.8232 31.918l46.9658 -27.6963z" />
    <glyph glyph-name="uniF102" unicode="&#xf102;" 
d="M102.772 345.696l-53.1143 -30.6504l-11.0869 19.2109l61.4443 35.457l138.253 -41.9814l-6.44629 -21.2246zM102.772 306.553l-53.1143 -30.6494l-11.0869 19.2109l61.4443 35.457l138.253 -41.9824l-6.44629 -21.2246zM102.772 267.41l-53.1143 -30.6504
l-11.0869 19.2119l61.4443 35.457l138.253 -41.9824l-6.44629 -21.2246zM102.772 228.268l-53.1143 -30.6504l-11.0869 19.2109l61.4443 35.457l138.253 -41.9814l-6.44629 -21.2246zM102.772 189.124l-53.1162 -30.6484l-11.085 19.2109l61.4443 35.4561l138.253 -41.9824
l-6.44629 -21.2246zM102.772 149.981l-53.1162 -30.6494l-11.085 19.2119l61.4443 35.4551l138.253 -41.9814l-6.44629 -21.2246zM102.772 110.839l-53.1162 -30.6494l-11.085 19.2109l61.4443 35.4561l138.253 -41.9824l-6.44629 -21.2246zM102.772 71.6953
l-53.1162 -30.6484l-11.085 19.2109l61.4443 35.4561l138.253 -41.9824l-6.44629 -21.2246zM313.578 345.696l-53.1162 -30.6504l-11.085 19.2109l61.4424 35.457l138.253 -41.9814l-6.44434 -21.2246zM313.578 384.839l-53.1162 -30.6504l-11.085 19.2119l61.4424 35.457
l138.253 -41.9824l-6.44434 -21.2246zM313.578 423.981l-53.1162 -30.6494l-11.085 19.2109l61.4424 35.457l138.253 -41.9824l-6.44434 -21.2246zM313.578 306.553l-53.1162 -30.6494l-11.085 19.2109l61.4424 35.457l138.253 -41.9824l-6.44434 -21.2246zM313.578 267.41
l-53.1162 -30.6504l-11.085 19.2119l61.4424 35.457l138.253 -41.9824l-6.44434 -21.2246zM313.578 228.268l-53.1162 -30.6504l-11.085 19.2109l61.4424 35.457l138.253 -41.9814l-6.44434 -21.2246zM313.578 189.124l-53.1162 -30.6484l-11.085 19.2109l61.4424 35.4561
l138.253 -41.9824l-6.44434 -21.2246zM313.578 149.981l-53.1162 -30.6494l-11.085 19.2119l61.4424 35.4551l138.253 -41.9814l-6.44434 -21.2246zM313.578 110.839l-53.1162 -30.6494l-11.085 19.2109l61.4424 35.4561l138.253 -41.9824l-6.44434 -21.2246z
M313.578 71.6953l-53.1162 -30.6484l-11.085 19.2109l61.4424 35.4561l138.253 -41.9824l-6.44434 -21.2246zM442.867 -42.7861h57.124v-21.2139h-487.982v21.2139h32.7666v53.1484l-6.2041 10.7529l61.4443 35.4551l138.253 -41.9814l-6.20605 -20.4355v-36.9395h23.5186
v53.1484l-6.20508 10.7529l61.4434 35.4551l138.253 -41.9814l-6.20508 -20.4355v-36.9395zM131.895 -42.7861h67.7451v28.8398l-67.7451 16.2588v-45.0986zM342.701 -42.7861h67.7441v28.8398l-67.7441 16.2588v-45.0986z" />
    <glyph glyph-name="uniF101" unicode="&#xf101;" 
d="M275.335 337.63c-7.80762 4.40625 -16.3193 7.74023 -25.3154 10.1367c12.1797 0 24.6621 2.07812 25.3154 -10.1367zM145.136 368.24c16.8545 0 31.7158 -8.36914 40.9141 -21.0859c-33.626 -9.75098 -59.2764 -34.4551 -72.1621 -68.8604
c-37.7969 30.0996 -16.0342 89.9463 31.248 89.9463zM47.457 287.66h-21.9141c-5.91504 0 -10.6914 4.80078 -10.6914 10.6895v38.7197c0 5.90527 4.77637 10.6973 10.6914 10.6973h21.9482c1.89258 6.18164 4.3877 12.1045 7.35449 17.7344l-15.5312 15.5391
c-1.99414 2.00293 -3.11621 4.7168 -3.11621 7.55664c0 2.84082 1.12207 5.55371 3.11621 7.56543l27.3936 27.3682c2.07812 2.08496 4.8252 3.12402 7.55566 3.12402c2.73145 0 5.46289 -1.03906 7.55762 -3.13281l15.5283 -15.5312
c5.64551 2.98242 11.5615 5.47949 17.7432 7.36426v21.9648c0 5.89648 4.80957 10.6807 10.6914 10.6807h38.7188c5.91406 0 10.6729 -4.78418 10.6729 -10.6807v-21.9658c6.19824 -1.88574 12.1133 -4.38184 17.7412 -7.36426l15.5811 15.5479
c2.07812 2.09473 4.80859 3.13379 7.54102 3.13379c2.73047 0 5.46191 -1.03906 7.55469 -3.13379l27.3623 -27.3682c2.02539 -2.00195 3.14746 -4.72363 3.14746 -7.55566c0 -2.83105 -1.12207 -5.55469 -3.14746 -7.55664l-15.5322 -15.5479
c2.66504 -5.01758 4.79297 -10.3711 6.60059 -15.8418c-14.0566 2.65625 -25.7344 2.65625 -38.166 1.11523c-11.6445 20.5488 -33.459 34.6143 -58.7236 34.6143c-37.3125 0 -67.6709 -30.3672 -67.6709 -67.6875c0 -23.8926 12.499 -44.8184 31.2305 -56.873
c-2.59668 -11.25 -4.05566 -23.2295 -4.05566 -35.9297c0 -0.176758 0.0175781 -0.360352 0.0175781 -0.537109c-2.41113 1.0625 -4.99219 1.81836 -7.32031 3.0498l-15.5146 -15.54c-2.02832 -1.99414 -4.74121 -3.11621 -7.55762 -3.11621
c-2.84668 0 -5.5791 1.12207 -7.57227 3.11621l-27.377 27.3857c-4.1709 4.17871 -4.1709 10.9492 0 15.1201l15.5312 15.54c-2.96582 5.62012 -5.46191 11.5518 -7.38867 17.7354zM382.864 80.4746c-22.1318 19.5527 -49.3252 33.0479 -78.9619 38.6191
c10.4541 16.7871 18.4463 36.1143 23.5225 56.3203c8.47656 5.29395 18.3975 8.49414 29.1025 8.49414c30.4434 0 55.2217 -24.7617 55.2217 -55.2051c0 -20.8613 -11.7607 -38.8369 -28.8848 -48.2285zM497.13 149.594l0.0185547 -41.7656
c0 -3.05859 -1.22363 -5.99707 -3.38574 -8.15039c-2.14453 -2.17969 -5.11035 -3.38574 -8.16016 -3.38574h-23.6885c-2.0459 -6.68359 -4.75879 -13.0859 -7.97656 -19.1504l16.8047 -16.7793c2.16211 -2.16992 3.35156 -5.10156 3.35156 -8.15918
s-1.18945 -5.98926 -3.35156 -8.15137l-29.5381 -29.5293c-2.26172 -2.25488 -5.21191 -3.37695 -8.16016 -3.37695c-1.29004 0 -2.58008 0.310547 -3.81934 0.737305c-7.52246 21.2021 -19.083 40.126 -33.626 56.0762c19.9883 12.8926 33.3066 35.2432 33.3066 60.7441
c0 39.8984 -32.4697 72.3613 -72.3779 72.3613c-8.76367 0 -17.04 -1.7998 -24.8125 -4.66504c1.37402 9.51465 2.10938 19.083 2.10938 28.5068c0 14.8447 -1.92676 28.7598 -5.44336 41.5938c2.00879 1.65918 4.47168 2.78125 7.27051 2.78125h41.7676
c6.36621 0 11.5107 -5.16211 11.5107 -11.5283v-23.6904c6.70215 -2.03613 13.085 -4.73242 19.1514 -7.9502l16.8047 16.7793c2.24414 2.25488 5.19238 3.38574 8.14258 3.38574c2.94727 0 5.91309 -1.13086 8.15723 -3.38574l29.5215 -29.5303
c2.17773 -2.16895 3.38477 -5.10059 3.38477 -8.15918c0 -3.05762 -1.20605 -5.98926 -3.38477 -8.15137l-16.7705 -16.7705c3.21777 -6.07227 5.93066 -12.4727 7.97656 -19.1494h23.6885c6.35059 0 11.5283 -5.16211 11.5283 -11.5371zM405.701 1.44434l9.90039 -29.1533
c2.84961 -8.38574 1.47461 -17.626 -3.66797 -24.8213c-5.16113 -7.19727 -13.4717 -11.4697 -22.335 -11.4697h-340.769c-8.8457 0 -17.1562 4.27246 -22.3164 11.4697c-5.16113 7.19531 -6.51758 16.4355 -3.68555 24.8213l9.90039 29.1445
c17.9121 52.71 65.2441 88.957 119.913 93.8906c18.2783 -19.376 40.9473 -31.666 66.5811 -31.666c25.6523 0 48.3047 12.291 66.6006 31.666c54.6367 -4.93359 101.966 -41.1807 119.878 -93.8818zM130.374 224.906h177.714c0 -65.3682 -39.79 -135.511 -88.8652 -135.511
c-49.0557 0 -88.8486 70.1426 -88.8486 135.511z" />
    <glyph glyph-name="uniF10F" unicode="&#xf10f;" 
d="M437.639 372.404c99.6357 -100.35 99.0996 -262.424 -1.21777 -362.06c-100.351 -99.6357 -262.425 -99.083 -362.076 1.23438c-99.6025 100.334 -99.083 262.408 1.25098 362.044c100.35 99.6514 262.424 99.083 362.043 -1.21875zM366.9 384.278
c-67.9775 39.1621 -152.231 39.4385 -220.469 0.763672l53.9277 -54.3008c35.9619 14.4072 76.375 14.2607 112.24 -0.390625zM117.292 136.343c-14.4082 35.9785 -14.2783 76.4082 0.40625 112.257l-53.9443 54.3008
c-39.1777 -67.9775 -39.4707 -152.231 -0.762695 -220.469zM145.116 -0.293945c67.9609 -39.1631 152.247 -39.4385 220.468 -0.763672l-53.9268 54.3164c-35.9463 -14.4238 -76.375 -14.2607 -112.224 0.374023zM337.468 109.948
c45.2529 44.9443 45.5127 118.298 0.568359 163.535c-44.9287 45.2373 -118.267 45.4814 -163.52 0.552734c-45.2539 -44.9287 -45.5137 -118.282 -0.584961 -163.52c44.9443 -45.2373 118.299 -45.4971 163.536 -0.568359zM394.318 135.4l53.9277 -54.3008
c39.1777 67.9775 39.4541 152.247 0.762695 220.469l-54.3008 -53.9277c14.4238 -35.9619 14.2617 -76.375 -0.389648 -112.24z" />
    <glyph glyph-name="uniF10C" unicode="&#xf10c;" 
d="M256 197.599c-56.9287 0 -103.08 56.0537 -103.08 125.2c0 69.1475 15.1553 125.201 103.08 125.201s103.077 -56.0537 103.077 -125.201c0 -69.1465 -46.1514 -125.2 -103.077 -125.2zM61.3066 6.43262v0c-0.0351562 1.1875 -0.0175781 4.21582 0 0zM450.685 3.13965v0
c0.0185547 8.00684 0.0556641 1.1543 0 0zM450.465 11.4883c0.121094 -7.70508 0.185547 -9.03809 0.217773 -8.35059l-0.00683594 -9.36035c0 0 -28.6631 -57.7773 -194.678 -57.7773c-166.017 0 -194.677 57.7773 -194.677 57.7773
c0 6.71875 -0.00878906 10.5713 -0.015625 12.6553c0.0322266 -1.1123 0.115234 -0.609375 0.294922 8.96875c2.19434 117.287 18.8828 151.101 137.952 172.591c0 0 16.9482 -21.5938 56.4453 -21.5938c39.498 0 56.4434 21.5938 56.4434 21.5938
c120.383 -21.7266 136.114 -56.0498 138.023 -176.504z" />
    <glyph glyph-name="uniF103" unicode="&#xf103;" 
d="M256.068 278.174c-18.333 0 -33.2021 21.2549 -33.2021 39.5898c0 18.3525 14.8672 33.2217 33.2021 33.2217c18.3262 0 33.2119 -14.8818 33.2119 -33.2217c0 -18.332 -14.8857 -39.5898 -33.2119 -39.5898zM216.638 215.336h-22.4785
c-1.30078 0 -2.55664 -0.185547 -3.8125 -0.394531l0.0654297 36.9277c0 0.120117 0.0722656 0.219727 0.0722656 0.342773c0.0136719 0.962891 0.321289 1.87207 0.55957 2.79102c0.203125 0.731445 0.263672 1.50977 0.569336 2.19629
c0.320312 0.744141 0.895508 1.3291 1.34473 2.00293c0.511719 0.720703 0.908203 1.47852 1.51953 2.0791c0.500977 0.498047 1.18848 0.793945 1.78613 1.19824c0.825195 0.572266 1.59863 1.17285 2.53027 1.55176
c0.123047 0.0283203 0.165039 0.135742 0.292969 0.164062c1.21387 0.449219 27.7744 9.9834 52.124 11.1816l3.11035 -6.26465h0.114258l-6.91211 -53.7793h-28.209v27.7227c-0.918945 -0.266602 -1.7959 -0.527344 -2.65039 -0.77832zM298.707 262.091
c-9.7666 -3.87793 -15.2324 -14.1621 -12.9707 -24.4775l0.572266 -2.62109l-10.4277 -19.6484h-11.2529l-6.88867 53.7715h0.0859375l3.10547 6.26465c15.791 -0.77832 32.373 -5.03711 42.5186 -8.06641l-2.24023 -4.23047zM430.344 292.908
c-19.6172 0 -35.5469 22.7812 -35.5469 42.4043c0 19.6533 15.9268 35.5723 35.5469 35.5723c19.6533 0 35.5879 -15.9375 35.5879 -35.5723c0 -19.6201 -15.9346 -42.4043 -35.5879 -42.4043zM497.95 203.326c7.75879 0 14.0605 -6.29688 14.0557 -14.0498v-37.0166
v-11.2607v-110.973c0 -7.75781 -6.31738 -14.0625 -14.0576 -14.0625h-95.7295c-7.77734 0 -14.0781 6.28613 -14.0781 14.0625v98.3701l-14.4258 -2.91406l-5.2666 -96.3984c-0.478516 -8.96973 -7.94141 -15.9453 -16.8311 -15.9453
c-0.316406 0 -0.616211 0.0126953 -0.914062 0.0283203c-9.31738 0.501953 -16.46 8.46191 -15.9482 17.7764l5.97559 109.432c0.404297 7.68555 5.98535 14.0986 13.5215 15.6318l36.7529 7.37207v91.917c-7.15234 -2.03711 -11.9756 -3.75 -12.124 -3.79492
c-0.0556641 -0.0126953 -0.0839844 0 -0.180664 -0.0126953c-0.0498047 -0.0292969 -0.0859375 -0.0859375 -0.148438 -0.101562l-67.4902 -22.5059c-1.48535 -0.485352 -2.97363 -0.714844 -4.45996 -0.714844c-2.85742 0 -5.62988 0.908203 -7.93848 2.49902
l-9.49512 -17.8838c-0.511719 -0.950195 -1.49902 -1.49316 -2.47852 -1.49316c-0.464844 0 -0.90332 0.109375 -1.32129 0.323242c-1.38379 0.734375 -1.88574 2.42676 -1.16504 3.80762l10.3965 19.6455c-0.509766 0.865234 -1.05762 1.6875 -1.40039 2.67969
c-2.46191 7.37207 1.5127 15.332 8.88672 17.7891l4.06152 1.35254l6.09961 11.4932c0.757812 1.37891 2.47363 1.89355 3.81543 1.15625c1.38672 -0.714844 1.88574 -2.41504 1.16992 -3.78613l-3.35254 -6.28027l55.6826 18.5693
c3.08691 1.09961 30.3662 10.6104 55.5293 11.8408l3.33008 -6.68848h0.0830078l-9.4375 -73.7646l11.2422 -19.6504l11.2705 19.6504l-9.47363 73.7646h0.106445l3.33789 6.70117c26.083 -1.28711 54.5293 -11.5029 55.8213 -11.9678
c0.123047 -0.0292969 0.193359 -0.133789 0.305664 -0.177734c1.02344 -0.394531 1.83105 -1.03418 2.71875 -1.65039c0.644531 -0.428711 1.36816 -0.75 1.91113 -1.27441c0.658203 -0.642578 1.08691 -1.46484 1.61426 -2.22754
c0.500977 -0.71875 1.10742 -1.34766 1.44629 -2.15234c0.339844 -0.744141 0.402344 -1.56348 0.611328 -2.35254c0.243164 -0.99707 0.569336 -1.96094 0.598633 -2.99805c0 -0.12207 0.0703125 -0.22168 0.0703125 -0.349609l0.120117 -51.085
c0 -3.47852 -1.29004 -6.83105 -3.60645 -9.42676l-1.16992 -1.29785c0.658203 0.101562 1.25586 0.394531 1.95801 0.394531zM469.729 255.288l-0.00195312 -39.4951l2.87793 3.21973l-0.0605469 35.4395c-0.900391 0.266602 -1.84375 0.542969 -2.81543 0.835938z
M483.894 44.0654v90.4102l-67.6104 -15.8877v-74.5225h67.6104zM483.894 189.264c0 0.0986328 0.0517578 0.168945 0.0498047 0.257812l-14.2168 -15.8037v-13.6738l14.167 3.32715v25.8926zM81.6797 292.908c-19.6484 0 -35.5781 22.7812 -35.5781 42.4043
c0 19.6533 15.9297 35.5723 35.5781 35.5723c19.6201 0 35.5576 -15.9375 35.5576 -35.5723c0 -19.6201 -15.9375 -42.4043 -35.5576 -42.4043zM157.784 155.999c7.53125 -1.5332 13.1123 -7.94629 13.4912 -15.6631l5.97461 -109.427
c0.506836 -9.30469 -6.63281 -17.251 -15.9404 -17.7656c-0.310547 -0.0253906 -0.616211 -0.0253906 -0.921875 -0.0253906c-8.89453 0 -16.3418 6.9541 -16.8428 15.958l-5.25195 96.3984l-14.4463 2.89844v-98.3701c0 -7.76074 -6.28613 -14.0781 -14.0596 -14.0781
h-95.7275c-7.75 0 -14.0596 6.30469 -14.0596 14.0781v110.973v11.2422v37.0459c0 7.75293 6.30957 14.0625 14.0596 14.0625c0.708008 0 1.31152 -0.292969 1.96387 -0.394531l-1.17188 1.29785c-2.33008 2.5957 -3.61426 5.94824 -3.60156 9.42676l0.015625 51.0977
c0 0.115234 0.0732422 0.230469 0.0732422 0.350586c0.0361328 1.0498 0.355469 2 0.597656 3c0.219727 0.798828 0.279297 1.62207 0.614258 2.35059c0.354492 0.80957 0.958008 1.43848 1.45117 2.15137c0.530273 0.762695 0.951172 1.58496 1.60938 2.23047
c0.540039 0.524414 1.27441 0.828125 1.92188 1.26855c0.879883 0.601562 1.70801 1.25879 2.7207 1.65137c0.115234 0.0488281 0.172852 0.148438 0.310547 0.176758c1.26953 0.472656 29.7285 10.6807 55.8096 11.9688l3.34766 -6.70117h0.104492l-9.4668 -73.7646
l11.2656 -19.6455l11.2549 19.6455l-9.45508 73.7646h0.0878906l3.33789 6.70117c26.0938 -1.29004 54.5498 -11.5039 55.8369 -11.9688c0.118164 -0.0253906 0.207031 -0.12793 0.305664 -0.176758c1.01074 -0.392578 1.81543 -1.03711 2.67969 -1.62207
c0.670898 -0.457031 1.3916 -0.773438 1.94043 -1.31641c0.663086 -0.626953 1.08398 -1.43359 1.61328 -2.18262c0.496094 -0.712891 1.12109 -1.37109 1.48145 -2.19434c0.304688 -0.728516 0.37793 -1.54785 0.579102 -2.32129
c0.248047 -1 0.584961 -1.97949 0.611328 -3.01367c0 -0.151367 0.078125 -0.25 0.078125 -0.385742v-58.8145l14.7051 -7.34668c6.98047 -3.49414 9.77441 -11.9238 6.31152 -18.8701c-2.45996 -4.95898 -7.42676 -7.80273 -12.5918 -7.80273
c-2.10742 0 -4.25684 0.514648 -6.27246 1.50195l-22.5078 11.2441c-4.75586 2.40332 -7.77441 7.25977 -7.77441 12.5898v57.2451c-0.87207 0.263672 -1.80469 0.527344 -2.80469 0.820312v-91.917zM39.4688 254.452l-0.0654297 -35.4395l2.88867 -3.21973v39.4951
c-0.982422 -0.292969 -1.91992 -0.569336 -2.82324 -0.835938zM42.3027 173.718l-14.2217 15.8037c0 -0.0888672 0.0546875 -0.174805 0.0546875 -0.257812v-25.8926l14.167 -3.32715v13.6738zM95.7402 44.0654h-0.00292969v74.5225l-67.6016 15.8877v-90.4102h67.6045z
M317.914 208.019c9.32324 0 16.8828 -7.54492 16.8623 -16.8672c0 -9.31543 -7.53906 -16.8623 -16.8623 -16.8623h-3.1123v-144.268c0 -7.75879 -6.30176 -14.0625 -14.0576 -14.0625h-89.3867c-7.77344 0 -14.0645 6.28613 -14.0645 14.0625v144.268h-3.13379
c-9.2998 0 -16.8672 7.54688 -16.8672 16.8623c0 9.32227 7.55176 16.8672 16.8672 16.8672h123.755z" />
    <glyph glyph-name="uniF108" unicode="&#xf108;" 
d="M372.408 207.048c8.83984 0 16 -7.16797 16 -16s-7.16016 -16 -16 -16h-226.28c-8.83984 0 -16 7.16797 -16 16s7.16016 16 16 16h226.28zM256 448c141.16 0 256 -114.84 256 -256s-114.84 -256 -256 -256s-256 114.84 -256 256s114.84 256 256 256zM256 -32
c123.512 0 224 100.488 224 224s-100.488 224 -224 224s-224 -100.488 -224 -224s100.488 -224 224 -224z" />
    <glyph glyph-name="uniF10B" unicode="&#xf10b;" 
d="M365.729 271.962c13.3252 4.43164 166.244 51.2734 144.082 -143.507c-23.2021 -203.536 -49.3047 0 -49.3047 0s-8.31738 85.2832 -27.0049 75.0771l9.87793 -9.98633l-35.5967 -35.377l-169.663 -170.211c-11.9023 -11.9297 -27.7441 -18.4961 -44.5439 -18.4961
c-16.8535 0 -32.6406 6.56641 -44.543 18.4961l-130.564 130.976c-11.9023 11.9287 -18.4688 27.7979 -18.4688 44.6797s6.56641 32.751 18.4688 44.6797l18.0576 18.1406c6.375 -11.3271 13.4893 -21.2324 21.5059 -29.4951l-14.0908 -14.1729
c-5.11621 -5.08887 -7.90723 -11.9287 -7.90723 -19.1523c0 -7.25098 2.79102 -14.0361 7.90723 -19.125l130.564 -130.976c10.2061 -10.2051 28.0176 -10.2051 38.1963 0l169.69 170.211c10.5342 10.5332 10.5342 27.7432 0 38.2773l-130.538 130.976
c-5.06152 5.11621 -11.9014 7.93457 -19.0977 7.93457c-7.19531 0 -13.9814 -2.81836 -19.0977 -7.93457l-107.582 -107.883c-7.16797 7.44141 -13.5977 16.7441 -19.3164 28.1807c-0.0273438 0.0546875 -0.492188 0.930664 -1.12207 2.38086l59.4277 59.6465
l6.42969 6.48438c-41.3691 -4.4873 -68.4834 -16.3896 -78.8809 -34.8848c-12.3398 -21.8887 1.6416 -49.0576 1.77832 -49.3311c14.1729 -28.3184 32.4502 -44.1328 56.1172 -48.9209c32.3125 -6.5127 68.8389 8.29004 96.5283 24.0225
c-0.383789 2.46191 -0.739258 4.95215 -0.739258 7.49609c0 25.501 20.6846 46.2402 46.1299 46.2402c25.4463 0 46.1309 -20.7393 46.1309 -46.2402c0 -25.5 -20.6846 -46.2666 -46.1309 -46.2666c-9.6582 0 -18.6865 3.03711 -26.1016 8.18066
c-27.498 -15.7051 -63.668 -31.0537 -99.8389 -31.0537c-7.66113 0 -15.3496 0.683594 -22.9834 2.18848c-34.8027 7.03223 -62.0537 29.7686 -81.0146 67.6631c-0.711914 1.31348 -23.3936 44.3516 -1.2041 83.7783c18.2773 32.4766 69.8789 58.8799 141.674 48.6201
l41.998 41.2598l17.7852 -18.3867z" />
    <glyph glyph-name="uniF100" unicode="&#xf100;" 
d="M376.614 206.978c8.44727 0 15.3027 -6.85547 15.3027 -15.3027s-6.85547 -15.3027 -15.3027 -15.3027h-110.946v-110.036c0 -8.44727 -6.85645 -15.3037 -15.3037 -15.3037s-15.3027 6.85645 -15.3027 15.3037v110.036h-103.295
c-8.44727 0 -15.3027 6.85547 -15.3027 15.3027s6.85547 15.3027 15.3027 15.3027h103.295v104.206c0 8.44727 6.85547 15.3027 15.3027 15.3027s15.3037 -6.85547 15.3037 -15.3027v-104.206h110.946zM255.996 448c141.17 0 256.004 -114.842 256.004 -255.996
c0 -141.162 -114.842 -256.004 -256.004 -256.004c-141.154 0 -255.996 114.842 -255.996 256.004s114.842 255.996 255.996 255.996zM255.996 -33.3936c124.283 0 225.397 101.114 225.397 225.397s-101.114 225.39 -225.397 225.39
c-124.275 0 -225.39 -101.114 -225.39 -225.39c0 -124.283 101.114 -225.397 225.39 -225.397z" />
    <glyph glyph-name="uniF109" unicode="&#xf109;" 
d="M401.066 413.866v-51.1992h-204.8v51.1992h204.8zM384 379.733v17.0664h-170.667v-17.0664h170.667zM162.134 209.066v85.334h85.333v-85.334h-85.333zM349.867 4.2666v85.333h85.333v-85.333h-85.333zM503.382 337.477
c0.0078125 -0.145508 0.0849609 -0.264648 0.0849609 -0.410156c0 -0.144531 -0.0771484 -0.264648 -0.0849609 -0.40918v-349.543c0 -28.1768 -22.9297 -51.1143 -51.1152 -51.1143h-392.533c-28.2373 0 -51.2002 22.9629 -51.2002 51.2002v204.8h85.333v256h409.516
v-110.523zM93.8662 -12.7998v187.733h-68.2666v-187.733c0 -18.8252 15.3096 -34.1338 34.1338 -34.1338s34.1328 15.3086 34.1328 34.1338zM290.134 -12.7998c4.71875 0 8.5332 3.81445 8.5332 8.5332s-3.81445 8.5332 -8.5332 8.5332h-128
c-4.71973 0 -8.53418 -3.81445 -8.53418 -8.5332s3.81445 -8.5332 8.53418 -8.5332h128zM145.066 192h119.467v119.467h-119.467v-119.467zM290.134 38.4004c4.71875 0 8.5332 3.81445 8.5332 8.5332s-3.81445 8.5332 -8.5332 8.5332h-128
c-4.71973 0 -8.53418 -3.81445 -8.53418 -8.5332s3.81445 -8.5332 8.53418 -8.5332h128zM290.134 89.5996c4.71875 0 8.5332 3.81445 8.5332 8.5332c0 4.71973 -3.81445 8.53418 -8.5332 8.53418h-128c-4.71973 0 -8.53418 -3.81445 -8.53418 -8.53418
c0 -4.71875 3.81445 -8.5332 8.53418 -8.5332h128zM452.267 -12.7998v119.467h-119.467v-119.467h119.467zM443.733 140.8c4.71875 0 8.5332 3.81445 8.5332 8.5332c0 4.71973 -3.81445 8.5332 -8.5332 8.5332h-281.6c-4.71973 0 -8.53418 -3.81348 -8.53418 -8.5332
c0 -4.71875 3.81445 -8.5332 8.53418 -8.5332h281.6zM443.733 192c4.71875 0 8.5332 3.81445 8.5332 8.5332s-3.81445 8.5332 -8.5332 8.5332h-136.533c-4.71875 0 -8.5332 -3.81445 -8.5332 -8.5332s3.81445 -8.5332 8.5332 -8.5332h136.533zM443.733 243.2
c4.71875 0 8.5332 3.81445 8.5332 8.5332s-3.81445 8.5332 -8.5332 8.5332h-136.533c-4.71875 0 -8.5332 -3.81445 -8.5332 -8.5332s3.81445 -8.5332 8.5332 -8.5332h136.533zM443.733 294.4c4.71875 0 8.5332 3.81445 8.5332 8.5332s-3.81445 8.5332 -8.5332 8.5332
h-136.533c-4.71875 0 -8.5332 -3.81445 -8.5332 -8.5332s3.81445 -8.5332 8.5332 -8.5332h136.533zM486.314 345.6v85.334h-375.381v-85.334h375.381z" />
    <glyph glyph-name="uniF106" unicode="&#xf106;" 
d="M256 313.477l182.609 -150.536c0.204102 -0.415039 0.320312 -1.05371 0.320312 -1.89844v-152.434c0 -5.50488 -2.01953 -10.2783 -6.04297 -14.29c-4.0166 -4.02832 -8.78613 -6.0459 -14.29 -6.0459h-121.942v121.955h-81.3076v-121.95h-121.943
c-5.50488 0 -10.2686 2.02148 -14.29 6.04102c-4.02344 4.0166 -6.03613 8.78613 -6.03613 14.29v152.434c0 0.217773 0.0556641 0.524414 0.160156 0.947266c0.107422 0.426758 0.160156 0.739258 0.160156 0.951172zM508.467 197.24
c2.11328 -1.69434 3.27734 -3.96973 3.49414 -6.82129c0.220703 -2.85938 -0.521484 -5.34961 -2.21484 -7.46973l-19.6914 -23.498c-1.70508 -1.89941 -3.9209 -3.07227 -6.66895 -3.49023h-0.955078c-2.75293 0 -4.97168 0.737305 -6.66895 2.21484l-219.762 183.245
l-219.76 -183.247c-2.54102 -1.69238 -5.08301 -2.43555 -7.625 -2.22168c-2.75293 0.425781 -4.97266 1.58984 -6.66895 3.49414l-19.6895 23.502c-1.69629 2.11523 -2.43555 4.61035 -2.22168 7.4668c0.21582 2.8584 1.37598 5.13477 3.49316 6.8252l228.343 190.23
c6.77441 5.50488 14.8203 8.25684 24.1357 8.25684c9.31641 0 17.3633 -2.75195 24.1309 -8.25684l77.4863 -64.7871v61.9258c0 2.96191 0.951172 5.39844 2.85449 7.30469c1.90723 1.9043 4.3418 2.85645 7.30762 2.85645h60.9736
c2.96875 0 5.4043 -0.952148 7.2998 -2.85645c1.91113 -1.90625 2.86328 -4.3418 2.86328 -7.30469v-129.57z" />
    <glyph glyph-name="uniF10E" unicode="&#xf10e;" 
d="M208.98 14.3691c0 -0.874023 0.106445 -3.04883 0.325195 -6.53516c0.219727 -3.48242 0.272461 -6.36328 0.164062 -8.64941c-0.109375 -2.27734 -0.4375 -4.84473 -0.982422 -7.6709c-0.545898 -2.83301 -1.63281 -4.95508 -3.2627 -6.37207
c-1.63574 -1.4082 -3.8623 -2.12012 -6.69238 -2.12012h-104.493c-25.9023 0 -48.0537 9.19727 -66.4502 27.6006c-18.3916 18.3877 -27.5889 40.541 -27.5889 66.4424v229.875c0 25.9043 9.19727 48.0527 27.5889 66.4463c18.3965 18.3936 40.5479 27.5918 66.4502 27.5918
h104.489c2.83008 0 5.27734 -1.03516 7.3457 -3.09863c2.06738 -2.07227 3.10156 -4.5166 3.10156 -7.3457c0 -0.875 0.109375 -3.05176 0.325195 -6.5332c0.219727 -3.48242 0.272461 -6.36914 0.165039 -8.65332
c-0.110352 -2.28613 -0.438477 -4.84082 -0.982422 -7.66992c-0.546875 -2.83008 -1.63379 -4.9541 -3.26367 -6.36816c-1.63574 -1.41797 -3.86133 -2.12109 -6.69238 -2.12109h-104.488c-14.3672 0 -26.668 -5.11719 -36.9004 -15.3506
c-10.2314 -10.2314 -15.3447 -22.5264 -15.3447 -36.8936v-229.88c0 -14.3643 5.11426 -26.6611 15.3447 -36.8926c10.2324 -10.2383 22.5332 -15.3496 36.9004 -15.3496h94.041h3.59082h4.24316s1.25 -0.111328 3.75488 -0.329102
c2.50586 -0.21582 3.75586 -0.543945 3.75586 -0.978516c0 -0.429688 0.870117 -1.03223 2.61426 -1.79199c1.74414 -0.758789 2.50488 -1.74512 2.28418 -2.93457c-0.22168 -1.19727 0.00292969 -2.67773 0.657227 -4.41797zM505.796 206.694
c4.13672 -4.13672 6.2041 -9.04102 6.2041 -14.7002c0 -5.66113 -2.06738 -10.5537 -6.2041 -14.6943l-177.63 -177.628c-4.13477 -4.13672 -9.03418 -6.20801 -14.6934 -6.20801c-5.66113 0 -10.5605 2.07129 -14.6973 6.20801
c-4.13672 4.13281 -6.2041 9.03711 -6.2041 14.6924v94.04h-146.285c-5.66016 0 -10.5557 2.07812 -14.6963 6.20703c-4.13672 4.13379 -6.2041 9.03418 -6.2041 14.6924v125.39c0 5.66016 2.06738 10.5596 6.2041 14.6963c4.13672 4.13184 9.03223 6.2041 14.6963 6.2041
h146.284v94.041c0 5.65625 2.06738 10.5596 6.2041 14.6963c4.1377 4.13086 9.03711 6.20312 14.6973 6.20312s10.5596 -2.07227 14.6924 -6.20312z" />
    <glyph glyph-name="uniF10D" unicode="&#xf10d;" 
d="M510.391 220.426c2.16797 -19.3896 2.14062 -38.9688 -0.114258 -58.2188c-0.889648 -7.49316 -7.64355 -13.1465 -14.9834 -12.5508l-3.16602 0.0820312c-22.6299 0 -43.6689 -13.9404 -52.3711 -34.7031c-9.25586 -22.0566 -3.47461 -47.7285 14.3438 -63.8643
c5.58691 -5.05566 6.25391 -13.5898 1.5293 -19.4561c-12.1748 -15.1631 -26.1006 -28.9365 -41.415 -40.9463c-5.89551 -4.55469 -14.2588 -3.88965 -19.3203 1.61621c-15.2305 16.7314 -42.333 23.0293 -63.4004 14.4248
c-21.7939 -8.92383 -35.8848 -30.8672 -35.0264 -54.5918c0.25 -7.44922 -5.25 -13.8428 -12.6738 -14.6611c-9.36719 -1.04199 -18.7354 -1.55664 -28.1025 -1.55664c-9.86816 0 -19.709 0.569336 -29.4912 1.71094c-7.47754 0.860352 -13.0078 7.41992 -12.5635 14.9541
c1.36035 23.9883 -12.5391 46.3203 -34.6357 55.5635c-21.0957 8.85449 -48.5029 2.58496 -63.8193 -14.3564c-5.08398 -5.60254 -13.6191 -6.26953 -19.4844 -1.54297c-14.9541 12.0361 -28.6035 25.8223 -40.499 40.9727
c-4.61523 5.85059 -3.91992 14.2598 1.55664 19.291c17.5107 16.0508 23.2637 41.4834 14.3145 63.3027c-8.97852 21.8486 -30.3809 35.6504 -52.6738 35.0811c-7.33594 0 -15.9824 5.36035 -16.7871 12.5879c-2.16797 19.3896 -2.14062 38.9863 0.111328 58.2197
c0.887695 7.37988 6.66895 12.8281 14.7861 12.5674c25.0146 0 46.8652 13.5615 55.7021 34.6045c9.25684 22.0713 3.50391 47.7393 -14.3135 63.875c-5.55957 5.05762 -6.25488 13.5781 -1.52832 19.457c12.1182 15.1221 26.0723 28.9072 41.415 40.9443
c5.86328 4.57031 14.2861 3.89258 19.3184 -1.625c15.2295 -16.748 42.4463 -22.9756 63.3721 -14.4277c21.8223 8.9375 35.8887 30.8818 35.0547 54.6201c-0.25 7.43555 5.25391 13.8281 12.6758 14.6475c19.1797 2.12793 38.4697 2.05957 57.5918 -0.152344
c7.50781 -0.874023 13.0117 -7.42188 12.5645 -14.9521c-1.36035 -23.9746 12.5381 -46.3096 34.5791 -55.5811c21.1797 -8.83691 48.5889 -2.55664 63.8486 14.3428c5.05957 5.60254 13.6211 6.25488 19.4561 1.57227c14.9004 -11.9375 28.5479 -25.71 40.5557 -40.958
c4.61523 -5.85059 3.94727 -14.2725 -1.55664 -19.3037c-17.4844 -16.0381 -23.2354 -41.4854 -14.3164 -63.3047c8.73047 -21.3037 29.5488 -35.0791 53.0088 -35.0791c7.25684 0 15.6484 -5.4082 16.458 -12.6055zM256.405 106.068
c47.0859 0 85.3877 38.3018 85.3877 85.3896c0 47.0859 -38.3018 85.3906 -85.3877 85.3906c-47.0889 0 -85.3906 -38.3047 -85.3906 -85.3906c0 -47.0879 38.3018 -85.3896 85.3906 -85.3896z" />
    <glyph glyph-name="uniF107" unicode="&#xf107;" 
d="M500.01 226.397c7.91797 -7.91309 11.9902 -18.5078 11.9883 -29.8311v-9.13086c0 -11.3232 -4.07129 -21.918 -11.9883 -29.8311c-1.24414 -1.24414 -2.27148 -2.38672 -3.6377 -3.45117c-16.2461 -103.754 -98.2051 -185.711 -201.962 -201.951
c-0.765625 -0.991211 -1.57227 -1.95605 -2.43164 -2.87793c-7.89062 -8.4668 -19.1309 -13.3223 -30.8379 -13.3223h-9.13086c-11.707 0 -22.9814 4.85547 -30.874 13.3223c-0.859375 0.921875 -1.70215 1.88672 -2.46875 2.87793
c-103.754 16.2422 -185.785 98.1982 -202.03 201.951c-1.36621 1.06348 -2.82812 2.20703 -4.07227 3.45117c-7.91699 7.91309 -12.5645 18.5078 -12.5645 29.8311v9.13086c0 11.3232 4.64746 21.918 12.5664 29.8311c1.24414 1.24316 2.84766 2.38672 4.21387 3.45117
c16.2451 103.752 98.2031 185.709 201.961 201.951c0.766602 0.990234 1.57227 1.95605 2.43262 2.87793c7.89062 8.4668 19.1309 13.3223 30.8379 13.3223h9.13086c11.7051 0 22.9082 -4.85547 30.8008 -13.3223c0.860352 -0.921875 1.62988 -1.8877 2.39648 -2.87793
c103.758 -16.2412 185.645 -98.1992 201.891 -201.953c1.36621 -1.0625 2.53516 -2.20703 3.7793 -3.44922zM486.054 196.566c0 9.10547 -6.83203 16.1299 -15.7646 16.1279c-0.399414 0 -0.518555 -0.0117188 -0.923828 -0.0410156l-36.8291 -2.5791
c-9.48926 -0.666016 -17.2725 -8.7998 -17.2725 -18.0742s7.72949 -17.4082 17.2188 -18.0742l36.748 -2.5791c0.405273 -0.0273438 0.664062 -0.0410156 1.06445 -0.0410156c8.93164 0 15.7588 7.02246 15.7588 16.1299v9.13086zM277.385 404.798
c0.666016 9.49121 -6.41895 17.2559 -15.9326 17.2559h-9.44238c-9.51367 0 -16.7441 -7.7666 -16.0781 -17.2559l2.58789 -36.8203c0.666016 -9.49121 8.81934 -17.2559 18.0947 -17.2559c9.27637 0 17.4473 7.7666 18.1133 17.2559zM97.8525 192
c0 9.27441 -7.83691 17.4082 -17.3271 18.0752l-36.8926 2.5791c-0.407227 0.0283203 -0.952148 0.0419922 -1.35352 0.0419922c-8.92969 0 -16.335 -7.02246 -16.335 -16.1299v-9.13086c0 -9.10547 7.40332 -16.1299 16.335 -16.1299
c0.400391 0 1.0918 0.0117188 1.49707 0.0410156l36.8203 2.5791c9.49121 0.666016 17.2559 8.7998 17.2559 18.0742zM252.01 -38.0537h9.12891c9.51367 0 16.7549 7.7666 16.0889 17.2559l-2.5791 36.8203c-0.666016 9.49121 -8.7998 17.2559 -18.0742 17.2559
s-17.4082 -7.7666 -18.0742 -17.2559l-2.5791 -36.8203c-0.666016 -9.49121 6.5752 -17.2559 16.0889 -17.2559zM256.578 88.2158c57.2256 0 103.783 46.5596 103.783 103.784s-46.5576 103.784 -103.783 103.784c-57.2246 0 -103.784 -46.5596 -103.784 -103.784
s46.5596 -103.784 103.784 -103.784z" />
  </font>
</defs></svg>
